<?xml version="1.0" encoding="UTF-8" standalone="no"?>
<svg width="78px" height="57px" viewBox="0 0 78 57" version="1.1" xmlns="http://www.w3.org/2000/svg" xmlns:xlink="http://www.w3.org/1999/xlink" xmlns:sketch="http://www.bohemiancoding.com/sketch/ns">
    <!-- Generator: Sketch 3.3.2 (12043) - http://www.bohemiancoding.com/sketch -->
    <title>ja3</title>
    <desc>Created with Sketch.</desc>
    <defs></defs>
    <g id="Page-1" stroke="none" stroke-width="1" fill="none" fill-rule="evenodd" sketch:type="MSPage">
        <g id="Desktop-HD" sketch:type="MSArtboardGroup" transform="translate(-408.000000, -498.000000)">
            <g id="ja3" sketch:type="MSLayerGroup" transform="translate(408.000000, 498.000000)">
                <path d="M33.56184,18.9283846 L22.4934171,37.7874923 L22.4925257,37.7883692 L0.334285714,37.7883692 L11.4120686,56.6667692 L33.5734286,56.6676462 L44.6422971,37.8063462 L44.6391771,37.8010846 L33.56184,18.9283846" id="blue" fill="#4FBBEC" sketch:type="MSShapeGroup"></path>
                <path d="M55.7214171,18.9275077 L44.6538857,37.7866154 L44.6538857,37.7874923 L44.6422971,37.8063462 L55.7187429,56.6825538 L77.87832,56.6825538 L55.7214171,18.9275077" id="red" fill="#C82434" sketch:type="MSShapeGroup"></path>
                <path d="M44.64096,0.0482307692 L33.5734286,18.9069 L33.5734286,18.9082154 L33.56184,18.9283846 L44.6391771,37.8010846 L44.6422971,37.8063462 L44.6538857,37.7874923 L44.6538857,37.7866154 L55.7214171,18.9275077 L55.7187429,18.9222462 L44.64096,0.0482307692" id="purple" fill="#3E1A30" sketch:type="MSShapeGroup"></path>
            </g>
        </g>
    </g>
</svg>