<?xml version="1.0" encoding="UTF-8" standalone="no"?>
<svg width="33px" height="22px" viewBox="0 0 33 22" version="1.1" xmlns="http://www.w3.org/2000/svg" xmlns:xlink="http://www.w3.org/1999/xlink" xmlns:sketch="http://www.bohemiancoding.com/sketch/ns">
    <!-- Generator: Sketch 3.3.2 (12043) - http://www.bohemiancoding.com/sketch -->
    <title>menu</title>
    <desc>Created with Sketch.</desc>
    <defs></defs>
    <g id="Page-1" stroke="none" stroke-width="1" fill="none" fill-rule="evenodd" sketch:type="MSPage">
        <g id="Desktop-HD" sketch:type="MSArtboardGroup" transform="translate(-270.000000, -515.000000)" stroke-linecap="square" stroke="#FFFFFF" stroke-width="2">
            <g id="menu" sketch:type="MSLayerGroup" transform="translate(271.000000, 515.000000)">
                <path d="M0.5,1 L30.5,1" id="l1" sketch:type="MSShapeGroup"></path>
                <path d="M0.5,11 L30.5,11" id="l2" sketch:type="MSShapeGroup"></path>
                <path d="M0.5,21 L30.5,21" id="l3" sketch:type="MSShapeGroup"></path>
            </g>
        </g>
    </g>
</svg>