<?xml version="1.0" encoding="UTF-8" standalone="no"?>
<svg width="24px" height="24px" viewBox="0 0 24 24" version="1.1" xmlns="http://www.w3.org/2000/svg" xmlns:xlink="http://www.w3.org/1999/xlink" xmlns:sketch="http://www.bohemiancoding.com/sketch/ns">
    <!-- Generator: Sketch 3.3.2 (12043) - http://www.bohemiancoding.com/sketch -->
    <title>tumblr</title>
    <desc>Created with Sketch.</desc>
    <defs></defs>
    <g id="Page-1" stroke="none" stroke-width="1" fill="none" fill-rule="evenodd" sketch:type="MSPage">
        <g id="tumblr" sketch:type="MSLayerGroup">
            <rect id="Rectangle-1" sketch:type="MSShapeGroup" x="0" y="0" width="24" height="24"></rect>
            <path d="M19.937653,22.5592971 C18.900816,23.0398996 17.963163,23.3768033 17.123367,23.5702092 C16.283673,23.7634142 15.374898,23.8602176 14.398571,23.8602176 C13.291224,23.8602176 12.310612,23.7223431 11.45949,23.4468954 C10.607551,23.171749 9.880918,22.779113 9.279286,22.2689874 C8.678367,21.7589623 8.261122,21.2170042 8.028673,20.6426109 C7.796633,20.0684184 7.680204,19.2356485 7.680204,18.1460084 L7.680204,9.77623431 L5,9.77623431 L5,6.40026778 C5.953469,6.09549791 6.768776,5.65897908 7.448163,5.09030962 C8.127143,4.52174059 8.672449,3.83929707 9.082857,3.04187448 C9.494184,2.24495397 9.776735,1.23062762 9.931531,0 L13.379796,0 L13.379796,6.03112971 L19.133673,6.03112971 L19.133673,9.77623431 L13.379796,9.77623431 L13.379796,15.8952301 C13.379796,17.2783933 13.45449,18.1662929 13.603469,18.558728 C13.752041,18.9518661 14.029286,19.2651715 14.434286,19.4995481 C14.970204,19.8161674 15.583571,19.9744268 16.274796,19.9744268 C17.500918,19.9744268 18.722449,19.5817908 19.937653,18.7962176 L19.937653,22.5592971" fill="#FFFFFF" sketch:type="MSShapeGroup"></path>
        </g>
    </g>
</svg>