<?xml version="1.0" encoding="UTF-8" standalone="no"?>
<svg width="31px" height="24px" viewBox="0 0 31 24" version="1.1" xmlns="http://www.w3.org/2000/svg" xmlns:xlink="http://www.w3.org/1999/xlink" xmlns:sketch="http://www.bohemiancoding.com/sketch/ns">
    <!-- Generator: Sketch 3.3.2 (12043) - http://www.bohemiancoding.com/sketch -->
    <title>twitter</title>
    <desc>Created with Sketch.</desc>
    <defs></defs>
    <g id="Page-1" stroke="none" stroke-width="1" fill="none" fill-rule="evenodd" sketch:type="MSPage">
        <g id="Menu-Hover" sketch:type="MSArtboardGroup" transform="translate(-940.000000, -950.000000)" fill="#FFFFFF">
            <g id="Text" sketch:type="MSLayerGroup" transform="translate(767.000000, 67.000000)">
                <g id="twitter-+-Instagram-+-facebook" transform="translate(5.000000, 883.000000)" sketch:type="MSShapeGroup">
                    <path d="M198.445419,2.844 C197.322323,3.325 196.122839,3.65 194.858323,3.8 C196.148645,3.05 197.141677,1.862 197.606194,0.45 C196.399484,1.144 195.064774,1.65 193.639226,1.919 C192.496516,0.737 190.87071,0 189.077677,0 C185.625806,0 182.832516,2.713 182.832516,6.056 C182.832516,6.531 182.884129,6.994 182.993548,7.438 C177.800258,7.188 173.19329,4.775 170.116129,1.106 C169.580387,2 169.27071,3.044 169.27071,4.15 C169.27071,6.25 170.380387,8.106 172.057806,9.194 C171.025548,9.169 170.058323,8.894 169.219097,8.437 L169.219097,8.513 C169.219097,11.45 171.374452,13.894 174.232774,14.45 C173.709419,14.587 173.155097,14.662 172.587355,14.662 C172.186839,14.662 171.793548,14.625 171.412645,14.55 C172.206452,16.956 174.516645,18.706 177.252129,18.756 C175.116387,20.381 172.419097,21.35 169.490581,21.35 C168.986839,21.35 168.490323,21.319 168,21.263 C170.755097,23 174.03871,24 177.561806,24 C189.064258,24 195.348645,14.769 195.348645,6.763 C195.348645,6.5 195.342452,6.237 195.329032,5.981 C196.548129,5.125 197.606194,4.063 198.445419,2.844" id="twitter"></path>
                </g>
            </g>
        </g>
    </g>
</svg>