<?xml version="1.0" encoding="UTF-8" standalone="no"?>
<svg width="31px" height="24px" viewBox="0 0 31 24" version="1.1" xmlns="http://www.w3.org/2000/svg" xmlns:xlink="http://www.w3.org/1999/xlink" xmlns:sketch="http://www.bohemiancoding.com/sketch/ns">
    <!-- Generator: Sketch 3.3.3 (12072) - http://www.bohemiancoding.com/sketch -->
    <title>vimeo</title>
    <desc>Created with Sketch.</desc>
    <defs></defs>
    <g id="Page-1" stroke="none" stroke-width="1" fill="none" fill-rule="evenodd" sketch:type="MSPage">
        <g sketch:type="MSLayerGroup" transform="translate(2.000000, 0.000000)" id="Fill-1" fill="#FFFFFF">
            <path d="M26.6771681,5.68323898 C26.5597299,8.28823309 24.744775,11.8514166 21.2349725,16.3754586 C17.6050626,21.1023486 14.5356536,23.464459 12.0240763,23.464459 C10.4680194,23.464459 9.15217704,22.0258403 8.07654935,19.148603 C7.35857454,16.5089112 6.64059973,13.8718885 5.92262492,11.2321967 C5.12190952,8.35495937 4.26514404,6.9163407 3.34965943,6.9163407 C3.15214963,6.9163407 2.45285818,7.33805081 1.25712318,8.17613293 L0,6.55334972 C1.31584231,5.39498143 2.61567031,4.23661315 3.8941459,3.07557582 C5.65305074,1.55421656 6.9715621,0.753501156 7.84967999,0.673429616 C9.92620193,0.473250766 11.2046775,1.89585513 11.6851068,4.94124271 C12.2029027,8.22684491 12.5632247,10.2686692 12.7634035,11.0693846 C13.3639401,13.794486 14.0231957,15.1557022 14.7411705,15.1557022 C15.3016713,15.1557022 16.1397534,14.2722462 17.258086,12.5053342 C18.3764185,10.7357532 18.974286,9.39055129 19.0570266,8.46705953 C19.2145006,6.94036216 18.6166331,6.17434443 17.258086,6.17434443 C16.6201827,6.17434443 15.960927,6.3238113 15.282988,6.6147379 C16.5934922,2.30955809 19.0997314,0.219690889 22.7990365,0.337129147 C25.5428213,0.417200688 26.8346422,2.20012698 26.6771681,5.68323898" sketch:type="MSShapeGroup"></path>
        </g>
    </g>
</svg>